{
	"status": true,
	"ReturnData": [{
		"province_region": "Bangkok",
		"sum_all_devices": 66768
	}, {
		"province_region": "Central",
		"sum_all_devices": 4650
	}, {
		"province_region": "Eastern",
		"sum_all_devices": 2084
	}, {
		"province_region": "NorthEastern",
		"sum_all_devices": 3038
	}, {
		"province_region": "Southern",
		"sum_all_devices": 2290
	}, {
		"province_region": "Northern",
		"sum_all_devices": 2064
	}, {
		"province_region": "Western",
		"sum_all_devices": 1114
	}],
	"AllDeviceRegistered": 707946,
	"result_code": "000",
	"result_desc": "Success"
}
